<?xml version="1.0" encoding="UTF-8" standalone="no"?>
<!-- Created with Inkscape (http://www.inkscape.org/) -->

<svg
   xmlns:dc="http://purl.org/dc/elements/1.1/"
   xmlns:cc="http://creativecommons.org/ns#"
   xmlns:rdf="http://www.w3.org/1999/02/22-rdf-syntax-ns#"
   xmlns:svg="http://www.w3.org/2000/svg"
   xmlns="http://www.w3.org/2000/svg"
   xmlns:sodipodi="http://sodipodi.sourceforge.net/DTD/sodipodi-0.dtd"
   xmlns:inkscape="http://www.inkscape.org/namespaces/inkscape"
   width="500"
   height="500"
   id="svg6361"
   version="1.1"
   inkscape:version="0.48.5 r10040"
   sodipodi:docname="logo.svg">
  <defs
     id="defs6363" />
  <sodipodi:namedview
     id="base"
     pagecolor="#ffffff"
     bordercolor="#666666"
     borderopacity="1.0"
     inkscape:pageopacity="0.0"
     inkscape:pageshadow="2"
     inkscape:zoom="0.49497475"
     inkscape:cx="152.14286"
     inkscape:cy="310.5042"
     inkscape:document-units="px"
     inkscape:current-layer="layer1"
     showgrid="false"
     inkscape:window-width="1366"
     inkscape:window-height="705"
     inkscape:window-x="-8"
     inkscape:window-y="-8"
     inkscape:window-maximized="1" />
  <metadata
     id="metadata6366">
    <rdf:RDF>
      <cc:Work
         rdf:about="">
        <dc:format>image/svg+xml</dc:format>
        <dc:type
           rdf:resource="http://purl.org/dc/dcmitype/StillImage" />
        <dc:title></dc:title>
      </cc:Work>
    </rdf:RDF>
  </metadata>
  <g
     inkscape:label="Layer 1"
     inkscape:groupmode="layer"
     id="layer1"
     transform="translate(0,-552.36217)">
    <path
       style="fill:#801638;fill-rule:evenodd;stroke:none;stroke-width:1px;stroke-linecap:butt;stroke-linejoin:miter;stroke-opacity:1;fill-opacity:1"
       d="M 251.4375 2.90625 C 114.18129 2.90625 2.90625 114.18129 2.90625 251.4375 C 2.90625 388.69371 114.18129 499.9375 251.4375 499.9375 C 388.69371 499.9375 499.9375 388.69371 499.9375 251.4375 C 499.9375 114.18129 388.69371 2.90625 251.4375 2.90625 z M 288.3125 97.375 L 288.59375 97.90625 L 286.53125 101.21875 L 285.8125 103.625 L 286.125 104.125 L 286.375 104.65625 L 286.375 105.15625 L 287.46875 104.3125 L 291.28125 102.78125 L 291.84375 102.53125 L 292.96875 101.90625 L 293.125 102.3125 L 292.78125 103.125 L 292.625 103.9375 L 292.46875 105.15625 L 292.28125 106.375 L 292.125 107.75 L 291.96875 108.9375 L 291.46875 111.625 L 293.71875 114.78125 L 294 115.09375 L 294.65625 115.84375 L 295.1875 116.34375 L 296.125 117.09375 L 297.40625 117.8125 L 298.0625 118.34375 L 298.53125 118.625 L 299.34375 119.15625 L 299.6875 119.1875 L 300.21875 119.5625 L 300.75 119.84375 L 301.03125 120.09375 L 301.28125 120.21875 L 301.75 120.375 L 302.3125 120.75 L 302.71875 120.9375 L 303.3125 121.5625 L 303.90625 122.03125 L 304.875 122.90625 L 306.25 124.21875 L 307.6875 123.53125 L 308.25 123.28125 L 309.75 122.75 L 310.0625 123.59375 L 310.46875 124.78125 L 311.15625 124.71875 L 311.84375 124.65625 L 311.78125 125.25 L 311.53125 127.875 L 311.4375 128.46875 L 311.34375 129.15625 L 311.15625 129.875 L 311.09375 130.125 L 311 130.625 L 310.34375 133.21875 L 309.34375 136.375 L 309 138.09375 L 307.9375 138.71875 L 305.96875 139.59375 L 305.375 139.90625 L 305.03125 140.0625 L 303.6875 140.90625 L 302.96875 141.375 L 302.53125 141.71875 L 302.46875 142.6875 L 302.375 144.75 L 302.375 146.28125 L 302.375 146.78125 L 302.3125 147.09375 L 302.15625 147.125 L 301.8125 147.34375 L 301.40625 147.53125 L 300.5625 149.28125 L 299.96875 151.0625 L 299.5625 152.15625 L 299.4375 152.53125 L 298.96875 153.78125 L 298.625 154.75 L 298.5625 155.0625 L 297.84375 158.625 L 297.96875 160.09375 L 299.4375 161.3125 L 300.375 163.5 L 300.8125 164.5625 L 302.09375 167.53125 L 302.21875 167.78125 L 302.59375 168.65625 L 303.8125 171.5625 L 305.3125 171.5 L 308.1875 171.28125 L 308.75 171.21875 L 309 171.1875 L 310.65625 171.09375 L 311.8125 171.03125 L 314.21875 171.46875 L 315.625 171.90625 L 318.28125 172.84375 L 318.875 173.0625 L 319.59375 173.3125 L 320.3125 173.5625 L 322.0625 174.21875 L 324.59375 175.1875 L 325.03125 175.375 L 324.9375 175.625 L 325.40625 175.84375 L 326.21875 176.34375 L 326.84375 176.71875 L 328.21875 177.6875 L 329.125 178.34375 L 329.34375 178.53125 L 329.84375 178.96875 L 330.90625 179.96875 L 332.25 181.1875 L 333 182.03125 L 333.28125 182.40625 L 333.9375 183.28125 L 334.4375 183.875 L 335.5625 185.84375 L 336.125 187.1875 L 336.1875 187.3125 L 336.4375 187.90625 L 336.59375 188.25 L 336.65625 188.5 L 337 188.5 L 337.25 188.28125 L 337.875 188.3125 L 338.3125 188.34375 L 339.25 188.0625 L 339.9375 187.84375 L 340.34375 187.96875 L 340.59375 188.1875 L 341.0625 188.53125 L 341.28125 188.84375 L 341.4375 189.40625 L 341.6875 190.25 L 342.3125 190.34375 L 343 190.34375 L 343.53125 190.3125 L 343.90625 191 L 344.25 192.15625 L 344.46875 192.625 L 344.5625 193.09375 L 344.625 193.375 L 344.65625 193.875 L 344.65625 194.15625 L 344.5 194.65625 L 344.5625 195.25 L 344.53125 195.625 L 344.9375 196.84375 L 345 197.28125 L 345.03125 197.90625 L 345.0625 198.1875 L 345.15625 198.53125 L 345.25 199.15625 L 345.3125 200.21875 L 345.40625 200.71875 L 345.625 201.25 L 346.3125 202.25 L 346.40625 202.5625 L 347.0625 203.96875 L 347.125 204.375 L 347.125 205.40625 L 347.0625 206.625 L 346.96875 206.9375 L 346.875 207.3125 L 346.65625 207.6875 L 346.6875 208 L 346.625 208.3125 L 346.40625 208.875 L 346.28125 209.21875 L 346.3125 209.46875 L 346.59375 209.59375 L 346.84375 209.625 L 348.34375 210.0625 L 349.75 210.4375 L 349.96875 210.5 L 351 210.78125 L 352.6875 211.25 L 353.59375 211.5 L 355.53125 212.0625 L 357.75 212.65625 L 358.96875 212.96875 L 359.375 213.0625 L 359.53125 213.125 L 361.15625 213.53125 L 363.0625 214.0625 L 363.65625 214.15625 L 363.90625 214.21875 L 364.21875 214.3125 L 364.59375 214.375 L 365.1875 214.40625 L 366.34375 214.5625 L 367.125 214.625 L 367.78125 214.71875 L 369.0625 214.875 L 370 215 L 370.4375 215.03125 L 371.0625 215.125 L 371.6875 215.21875 L 371.9375 215.25 L 372.40625 215.46875 L 372.8125 215.71875 L 373.09375 215.8125 L 373.40625 215.84375 L 373.875 215.84375 L 373.90625 216.21875 L 374.0625 216.90625 L 374.125 217.15625 L 373.875 217.59375 L 373.4375 218.28125 L 373.09375 218.875 L 372.78125 219.375 L 372.4375 219.78125 L 372.1875 220.03125 L 371.9375 219.875 L 371.6875 219.90625 L 371 219.6875 L 370.5625 219.84375 L 370.3125 220.03125 L 369.71875 219.8125 L 369.46875 219.71875 L 369.125 220.03125 L 368.8125 220.125 L 367.3125 219.75 L 367.375 220.46875 L 367.5 221.28125 L 367.5625 221.96875 L 367.65625 222.5625 L 367.75 223.15625 L 367.25 223.65625 L 367.34375 224.46875 L 367.46875 225.15625 L 367.5625 225.78125 L 367.65625 226.4375 L 367.71875 226.78125 L 368.1875 226.71875 L 369.46875 226.53125 L 370.4375 226.375 L 370.84375 226.34375 L 371.625 226.34375 L 372.125 226.375 L 373.625 226.40625 L 375.53125 226.46875 L 375.8125 226.5 L 376.34375 226.59375 L 377 226.78125 L 377.3125 226.90625 L 377.59375 226.96875 L 378.125 227.0625 L 379.25 227.15625 L 379.96875 227.15625 L 381.375 227.0625 L 383.875 227 L 384.65625 226.96875 L 384.84375 227.71875 L 385.15625 229.34375 L 385.28125 230.03125 L 385.34375 230.28125 L 385.5 230.5 L 384.75 231.21875 L 383.875 232.09375 L 381.875 233.46875 L 380.1875 234.59375 L 379.28125 235.1875 L 379.03125 235.375 L 377.78125 236.3125 L 377.1875 236.8125 L 376.8125 237.125 L 376.5 237.40625 L 376.03125 237.90625 L 375.09375 239 L 373.96875 240.0625 L 372.96875 241.25 L 372.6875 241.5625 L 372.34375 242.125 L 372.09375 242.5 L 371.84375 243 L 371.5625 243.5625 L 371.4375 243.90625 L 371 244.78125 L 370.21875 246.625 L 369.90625 247.34375 L 369.78125 247.59375 L 369.6875 247.90625 L 369.625 248.1875 L 369.375 249.1875 L 369.03125 250.53125 L 368.90625 251.3125 L 368.5 253.59375 L 367.5625 256.65625 L 367.375 257.28125 L 366.78125 258.65625 L 367.15625 258.875 L 367.75 259.21875 L 369.875 259.75 L 368.90625 261.03125 L 368.28125 261.90625 L 367.4375 263 L 366.40625 264.40625 L 366.21875 264.65625 L 364.78125 266.625 L 363.65625 268.15625 L 361.96875 270.46875 L 361.78125 270.84375 L 361.65625 271.875 L 361.46875 273.34375 L 361.1875 274.71875 L 361.09375 275.21875 L 361.78125 275.46875 L 362.375 275.6875 L 362.65625 275.875 L 362.46875 276.25 L 361.5625 277.4375 L 360.875 278.34375 L 360.28125 279.09375 L 359.96875 279.53125 L 360.15625 279.625 L 361.96875 280.28125 L 362.90625 279.3125 L 363.1875 279.21875 L 364.90625 279.6875 L 365.34375 279.84375 L 365.28125 280.40625 L 365.3125 281.625 L 365.625 281.6875 L 365.625 282.78125 L 365.5 283.03125 L 365.375 283.3125 L 366.0625 283.5 L 366.40625 283.15625 L 366.25 282.875 L 366.125 282.3125 L 366.09375 281.4375 L 366.46875 281.40625 L 367.40625 281.40625 L 367.0625 281.09375 L 367.09375 280.71875 L 367.125 280.3125 L 367.21875 280.03125 L 367.40625 277.125 L 367.75 276.96875 L 368.09375 276.9375 L 368.375 277.09375 L 368.6875 277.125 L 368.90625 277.15625 L 369.53125 276.875 L 370.09375 276.34375 L 370.28125 276.09375 L 370.65625 275.8125 L 372.90625 275.0625 L 373.34375 274.875 L 373.84375 274.6875 L 374.25 274.3125 L 375.375 273.53125 L 376.21875 273 L 376.5 272.8125 L 376.90625 272.4375 L 377.28125 272.0625 L 377.6875 272.15625 L 378.21875 272.3125 L 379.5625 272.4375 L 380.28125 272.875 L 380.625 273.0625 L 381.65625 273.625 L 382.25 273.90625 L 383.5 274.1875 L 384.09375 274.53125 L 384.625 275.0625 L 385.34375 275.75 L 385.65625 275.96875 L 386.125 276.1875 L 386.8125 276.59375 L 387.09375 276.71875 L 387.4375 276.90625 L 387.75 277.03125 L 388.375 276.96875 L 388.9375 276.9375 L 390.25 276.5625 L 391.4375 277.34375 L 391.6875 277.5 L 392.0625 277.78125 L 393.5 279 L 394.375 279.625 L 395.34375 280.34375 L 396.5625 281.0625 L 396.75 281.34375 L 396.90625 281.59375 L 397.25 282.0625 L 397.625 282.65625 L 398.6875 283.6875 L 400.40625 284.46875 L 400.65625 284.59375 L 400.90625 284.78125 L 401.75 284.71875 L 402.375 284.71875 L 402.8125 284.78125 L 403.40625 284.96875 L 405.28125 285.375 L 405.65625 285.59375 L 405.8125 285.8125 L 406.125 286.5625 L 406.40625 287.3125 L 406.59375 288.9375 L 406.8125 289.3125 L 406.75 290.84375 L 407.21875 291.9375 L 407.28125 292.3125 L 407.28125 292.53125 L 407.125 293.4375 L 407.6875 293.59375 L 408.03125 293.65625 L 408.6875 293.8125 L 409.78125 293.90625 L 410.53125 293.96875 L 410.84375 293.21875 L 411.03125 291.8125 L 411.125 291.09375 L 411.125 290.8125 L 410.9375 289.53125 L 409.84375 289.125 L 409.65625 288.21875 L 409.4375 286.46875 L 409.375 285.375 L 409.15625 285.125 L 408.53125 283.625 L 408.03125 282.875 L 407.625 281.875 L 408.03125 281.875 L 408.71875 281.875 L 408.90625 282.25 L 409.09375 282.5 L 409.9375 283.21875 L 410.1875 283.4375 L 410.96875 284.09375 L 411.53125 284.53125 L 413.28125 285.6875 L 414.09375 286.1875 L 414.375 286.3125 L 415.09375 286.53125 L 415.625 286.625 L 415.75 286.84375 L 416.15625 286.6875 L 416.9375 287.65625 L 417.125 287.90625 L 419.09375 291.96875 L 419.375 292.28125 L 420.25 293.28125 L 421.3125 294.46875 L 422.65625 296.03125 L 423.75 297.34375 L 424.25 297.5 L 424.5 297.53125 L 425.9375 297.75 L 426.6875 297.46875 L 427.34375 297.59375 L 427.40625 297.875 L 427.875 298.1875 L 428.40625 298.3125 L 428.65625 298.40625 L 429.59375 298.5625 L 430.625 298.78125 L 431.5 299.03125 L 432.3125 298.75 L 432.75 298.90625 L 433.5 299.0625 L 435.90625 299.78125 L 436.3125 299.96875 L 436.625 300.09375 L 437.09375 300.34375 L 437.375 300.6875 L 437.75 300.9375 L 437.90625 301.375 L 438.59375 301.3125 L 438.59375 301.625 L 438.4375 302 L 438.21875 302.46875 L 437.65625 303.71875 L 437.4375 304.15625 L 438.59375 304.40625 L 438.90625 304.46875 L 438.6875 305.59375 L 435.40625 305.71875 L 433.09375 307.65625 L 431.96875 308.625 L 431.75 308.84375 L 431.5 310.5625 L 431.34375 311.59375 L 431.4375 311.9375 L 431.28125 313.09375 L 429.96875 313.1875 L 428.84375 312.96875 L 428.71875 313.3125 L 428.40625 313.25 L 425.8125 312.75 L 424.90625 312.4375 L 424.5 312.28125 L 423.6875 311.875 L 422.5625 311.21875 L 421.3125 310.1875 L 420.84375 309.90625 L 420.5625 309.59375 L 420.53125 309.90625 L 421.09375 310.3125 L 422.1875 311.15625 L 422.40625 311.34375 L 422.6875 311.53125 L 423.15625 311.8125 L 424.25 312.40625 L 424.90625 312.65625 L 425.53125 312.84375 L 425.875 312.9375 L 427.28125 313.25 L 428.375 313.5 L 428.65625 313.5625 L 429.78125 313.8125 L 429.71875 314.1875 L 429.65625 314.625 L 429.46875 316.03125 L 429.1875 316.8125 L 430.59375 317.34375 L 430.5625 317.59375 L 430.40625 318.21875 L 430.28125 318.96875 L 429.46875 318.9375 L 428.46875 318.78125 L 426.3125 322.28125 L 425.25 323.875 L 425 324.25 L 424.84375 324.5 L 424.96875 324.875 L 424.96875 325.03125 L 424.96875 325.5 L 424.90625 325.875 L 424.5625 326.5 L 424.34375 327.15625 L 424.25 327.5625 L 424.125 327.9375 L 424.09375 328.21875 L 424.125 328.5625 L 424.21875 328.78125 L 424.6875 329.5625 L 424.90625 329.875 L 425.1875 330.40625 L 425.5625 331.0625 L 425.78125 331.40625 L 426.125 331.90625 L 426.375 332.15625 L 426.4375 332.40625 L 426.5 332.71875 L 426.65625 333 L 427.0625 333.25 L 427.46875 333.46875 L 427.75 333.625 L 428.1875 334.21875 L 428.375 334.53125 L 428.5 335.03125 L 428.75 335.6875 L 428.6875 335.9375 L 428.625 336.21875 L 428.46875 336.625 L 428 336.78125 L 427.15625 337.1875 L 426.75 338.375 L 426.46875 339.3125 L 426.4375 339.75 L 426.5 340.28125 L 426.46875 340.59375 L 426.15625 341.1875 L 425.8125 341.5 L 425.21875 342.03125 L 425.0625 342.375 L 424.84375 342.59375 L 424.25 342.90625 L 424.0625 342.59375 L 423.78125 342.71875 L 423.5 342.8125 L 423.21875 342.6875 L 422.9375 342.59375 L 422.5 342.9375 L 422.09375 343.125 L 421.75 343.0625 L 421.46875 343.4375 L 421.15625 343.625 L 420.8125 343.875 L 420.40625 344.15625 L 419.9375 343.96875 L 419.5 343.75 L 419.03125 343.53125 L 418.5625 343.5 L 417.96875 343.625 L 417.65625 343.5 L 417.5 343.15625 L 417.125 342.875 L 416.6875 342.9375 L 416.4375 343.15625 L 415.84375 343.53125 L 415.59375 343.84375 L 415.46875 344.15625 L 415.125 344.40625 L 414.875 344.5 L 414.59375 344.65625 L 414.3125 344.9375 L 414.03125 345.0625 L 413.78125 345.625 L 413.28125 345.84375 L 413.09375 346.15625 L 412.84375 346.40625 L 412.46875 346.71875 L 412.0625 346.75 L 411.65625 346.78125 L 411.15625 347.03125 L 410.96875 347.3125 L 410.6875 347.46875 L 410.40625 347.96875 L 410.21875 348.21875 L 409.875 348.34375 L 409.5625 348.28125 L 409.15625 348.40625 L 408.78125 348.78125 L 408.65625 349.09375 L 408.4375 349.6875 L 408.0625 350.21875 L 407.6875 350.625 L 407.375 350.78125 L 407.125 350.6875 L 407.40625 350.09375 L 407.53125 349.78125 L 407.3125 349.46875 L 406.96875 349.5 L 406.6875 349.625 L 406.4375 350 L 406.46875 350.90625 L 406.375 351.1875 L 406.375 351.53125 L 406.0625 351.90625 L 405.8125 352.28125 L 405.5625 352.53125 L 405.25 352.90625 L 404.90625 353.40625 L 404.28125 354.15625 L 404.03125 354.46875 L 403.3125 355.25 L 403.0625 355.53125 L 402.71875 355.6875 L 402.4375 355.75 L 402.125 355.75 L 401.75 355.4375 L 401.59375 355.15625 L 401.375 355.53125 L 401.28125 355.9375 L 400.84375 355.8125 L 400.65625 356.59375 L 400.53125 356.84375 L 400.90625 357.125 L 401.25 357.46875 L 401.65625 357.625 L 402.375 357.375 L 402.625 357.53125 L 403.3125 358.0625 L 404.71875 359.15625 L 405.09375 359.375 L 405.625 359.34375 L 407.15625 359 L 406.46875 362.5625 L 407.65625 362.375 L 407.9375 362.59375 L 408.3125 362.71875 L 408.03125 364.125 L 407.53125 365 L 407.40625 365.34375 L 407.25 365.625 L 406.9375 366.28125 L 406.25 367.4375 L 406.0625 367.75 L 405.875 368.0625 L 405.4375 368.78125 L 404.9375 369.34375 L 404.6875 369.625 L 404.4375 369.875 L 404.25 370.21875 L 404.21875 370.46875 L 404.40625 370.90625 L 404.34375 371.15625 L 403.65625 371.25 L 403.4375 371.34375 L 403.8125 371.65625 L 403.8125 371.875 L 403.03125 371.65625 L 402.875 371.4375 L 402.40625 371.5 L 402.15625 371.65625 L 401.84375 371.75 L 401.40625 371.8125 L 400.9375 371.53125 L 400.6875 371.3125 L 399.65625 370.40625 L 399.21875 370.28125 L 398.5625 369.90625 L 398.1875 369.875 L 397.3125 369.9375 L 396.5625 370.125 L 396.3125 370.25 L 395.625 370.875 L 395.09375 371.28125 L 394.5625 371.59375 L 393.90625 371.875 L 393.03125 372.125 L 392.6875 372.28125 L 392.3125 372.9375 L 392.15625 373.21875 L 391.96875 373.8125 L 391.71875 374.0625 L 391.28125 374.28125 L 391.0625 374.53125 L 390.5625 375.28125 L 390.3125 375.6875 L 390.09375 376.1875 L 389.9375 376.8125 L 389.84375 377.3125 L 389.78125 377.96875 L 389.6875 378.34375 L 389.65625 378.84375 L 389.78125 379.5 L 389.8125 379.8125 L 389.1875 380.03125 L 388.8125 380.21875 L 388.5 380.5 L 388.1875 380.96875 L 388 381.3125 L 387.875 381.625 L 387.75 382.15625 L 387.75 382.5625 L 387.75 382.8125 L 387.375 383.5625 L 387.125 383.8125 L 386.53125 384.09375 L 386.21875 384.3125 L 385.96875 384.71875 L 385.90625 385.03125 L 385.0625 385.53125 L 384.84375 385.8125 L 384.6875 387.21875 L 384.6875 387.46875 L 384.625 387.71875 L 384.25 388.5625 L 384.25 389.21875 L 384.03125 389.71875 L 382.9375 391 L 382.65625 391.5 L 382.3125 392.4375 L 382.21875 392.6875 L 382 393.15625 L 381.6875 393.65625 L 381.65625 394.28125 L 381.84375 395.78125 L 381.84375 396.125 L 381.625 396.59375 L 381.1875 397.0625 L 380.59375 397.5 L 380.21875 397.6875 L 379.9375 397.75 L 379.71875 397.71875 L 378.65625 397.3125 L 378.3125 396.9375 L 378 396.28125 L 377.21875 396.25 L 376.96875 396.25 L 376.71875 395.8125 L 376.46875 395.3125 L 376.25 394.96875 L 375.375 394.125 L 374.46875 392.96875 L 374.09375 392.21875 L 373.75 391.3125 L 373.53125 390.65625 L 373.4375 390.21875 L 373.46875 389.8125 L 373.625 388.9375 L 373.59375 387.1875 L 373.71875 385.84375 L 373.75 385.34375 L 373.75 384.15625 L 373.875 381.46875 L 374.125 379.96875 L 374.28125 379.4375 L 374.40625 378.9375 L 374.78125 378.1875 L 375.09375 377.65625 L 375.40625 377.25 L 376.34375 376 L 377.75 374.625 L 378.21875 374.15625 L 378.75 373.65625 L 379 373.375 L 379.15625 373.09375 L 379.40625 372.625 L 379.5 372.21875 L 379.5 371.4375 L 379.40625 370.9375 L 379.25 370.5 L 379.1875 369.78125 L 379.125 369.53125 L 379.09375 369.25 L 377.5625 369.09375 L 377.25 369 L 376.78125 368.8125 L 377.15625 367.6875 L 377.28125 367.0625 L 377.25 366.375 L 377.1875 364.15625 L 377.125 362.84375 L 376.75 362.53125 L 375.03125 362.8125 L 373.0625 363.25 L 371.8125 363.53125 L 371.03125 362.21875 L 370.1875 360.65625 L 369.59375 359.53125 L 369.28125 359.09375 L 368.78125 359.28125 L 368.28125 359.65625 L 364.65625 361.71875 L 361.71875 363.40625 L 360.4375 364.09375 L 360.4375 364.34375 L 359.53125 364.84375 L 359.0625 365.15625 L 358.6875 365.3125 L 358.40625 365.46875 L 357.65625 365.875 L 357.15625 366.03125 L 356.84375 366.15625 L 357.3125 365 L 357.34375 364.75 L 357.375 364.46875 L 357.375 364.21875 L 357.3125 363.625 L 357.25 363.375 L 357.03125 360.6875 L 356.90625 360.3125 L 356.59375 359.71875 L 356.375 359.40625 L 356 359.0625 L 355.75 358.71875 L 355.625 358.4375 L 355.375 357.8125 L 354.8125 357.25 L 354.59375 357 L 354.15625 356.6875 L 353.84375 356.21875 L 353.46875 355.625 L 351.75 355.125 L 351 353.96875 L 350.96875 353.65625 L 351.15625 353.1875 L 351.25 352.84375 L 351.09375 352.53125 L 350.875 352.4375 L 350.65625 352.34375 L 350.65625 352.03125 L 350.34375 351.5625 L 350.3125 351.25 L 350.59375 349.6875 L 350.59375 349.375 L 349.90625 348.34375 L 349.8125 348.1875 L 349.3125 348.375 L 348.15625 348.78125 L 347.21875 349.28125 L 346.90625 349.4375 L 345.65625 349.875 L 344.09375 350.40625 L 343.125 350.71875 L 340.84375 351.28125 L 340.5 351.375 L 339.90625 351.5 L 337.875 352.21875 L 336.125 352.75 L 335.46875 352.9375 L 334.84375 353.0625 L 334.4375 353.125 L 334.03125 353.1875 L 333.78125 353.1875 L 332.90625 353.15625 L 332 353.1875 L 331.65625 353.15625 L 331.375 353.125 L 330.40625 353.0625 L 327.3125 352.875 L 318.6875 352.46875 L 318.3125 350.65625 L 318.53125 348.6875 L 318.75 347.03125 L 319.3125 345 L 319.1875 344.625 L 319.71875 344.4375 L 319.59375 344.0625 L 319.96875 343.25 L 320.125 342.71875 L 320.21875 342.15625 L 319.59375 342.6875 L 319.34375 342.75 L 319.03125 342.90625 L 318.4375 343.21875 L 317.78125 343.5625 L 317.3125 343.875 L 316.71875 344.25 L 316.3125 344.53125 L 315.84375 344.84375 L 315.5 345.0625 L 315.28125 344.875 L 314.90625 344.53125 L 314.6875 344.3125 L 314.375 344.09375 L 314 343.78125 L 313.59375 343.53125 L 313.25 343.40625 L 312.84375 343.25 L 312.59375 343.125 L 312.21875 342.9375 L 311.84375 342.71875 L 311.03125 342.34375 L 310.78125 342.21875 L 310.21875 341.84375 L 308.96875 341.1875 L 308.21875 340.90625 L 307.125 341.625 L 305.28125 342.125 L 303.34375 342.59375 L 302.65625 342.78125 L 300.6875 343.125 L 299.875 343.28125 L 299.4375 343.375 L 298.625 343.625 L 298.0625 343.6875 L 296.75 343.875 L 295.34375 344.3125 L 294.3125 344.59375 L 294.0625 344.625 L 292.21875 344.90625 L 290.53125 345.3125 L 289.84375 345.625 L 288.5 346.21875 L 288.125 343.46875 L 288.0625 342.71875 L 287.9375 342.25 L 287.65625 341.375 L 287.34375 340.15625 L 287.34375 339.875 L 287.21875 339.46875 L 286.875 339.125 L 286.1875 337.03125 L 285.34375 334.875 L 284.34375 332.03125 L 283.6875 330.34375 L 282.8125 327.59375 L 282.5 326.4375 L 282.25 325.625 L 281.96875 324.9375 L 281.15625 324.59375 L 280.09375 324.15625 L 279.71875 324.0625 L 277.90625 324.34375 L 276.25 324.875 L 275.875 325 L 275 325.40625 L 274.09375 325.84375 L 273.40625 326.1875 L 272.03125 326.875 L 271.71875 327.15625 L 271.46875 327.25 L 271.15625 327.375 L 270.03125 327.96875 L 268.9375 328.5625 L 268.21875 328.9375 L 267.375 329.40625 L 266.4375 329.71875 L 266.15625 329.78125 L 262.5625 331.4375 L 261.65625 331.6875 L 261.15625 331.8125 L 260.21875 332.0625 L 259.1875 332.375 L 258.21875 332.75 L 257 333.25 L 256 333.5 L 255.78125 333.5625 L 255.3125 333.71875 L 255.15625 334.4375 L 255.15625 334.84375 L 255.25 336.1875 L 255.625 338.09375 L 255.78125 338.8125 L 256.03125 339.71875 L 256.84375 342.625 L 258.0625 347.03125 L 258.90625 350.0625 L 259.625 352.8125 L 259.8125 353.40625 L 260.03125 354.75 L 260.0625 355.3125 L 259.8125 355.84375 L 259.375 356.875 L 258.375 359.25 L 257.0625 362.3125 L 256.53125 363.6875 L 256.46875 363.875 L 254.84375 363.75 L 252.0625 363.59375 L 252.125 363.25 L 250.84375 363.40625 L 250.5 363.46875 L 249.3125 363.28125 L 248.75 363.1875 L 247.6875 363.125 L 247.375 363.0625 L 246.40625 362.90625 L 245.625 362.78125 L 245.15625 362.71875 L 244.28125 362.625 L 240.78125 362.4375 L 238.875 362.34375 L 238.90625 361.625 L 238.71875 361.09375 L 238.71875 360.375 L 238.78125 359.625 L 238.71875 358.90625 L 238.78125 358.46875 L 238.65625 356.625 L 238.46875 354.90625 L 238.4375 354.4375 L 238.28125 352.78125 L 237.375 352.875 L 235.6875 353 L 235.53125 353 L 233.59375 353.15625 L 232.625 353.15625 L 232.25 353.15625 L 231.5625 353.125 L 229.125 352.875 L 230.0625 348.21875 L 228.21875 347.0625 L 225.9375 345.65625 L 225.0625 345.21875 L 224.15625 344.625 L 223.125 343.96875 L 222.71875 343.5625 L 222.1875 343.15625 L 221.53125 342.625 L 220.375 341.65625 L 219.53125 340.8125 L 218.4375 339.96875 L 217.59375 339.125 L 215.875 337.40625 L 214.25 335.78125 L 214.3125 333.09375 L 214.28125 332.21875 L 213.71875 332.59375 L 210.28125 334.8125 L 208.78125 335.71875 L 208.09375 336.15625 L 205.75 337.53125 L 203.5625 338.8125 L 200.90625 340.4375 L 198.40625 342.125 L 198.03125 342.625 L 197.4375 343.21875 L 197 342.625 L 196.0625 341.1875 L 194.625 338.6875 L 193.6875 337.3125 L 192.125 334.9375 L 191.53125 334.0625 L 191.21875 333.625 L 190.875 333.09375 L 190.1875 332.03125 L 188.71875 329.71875 L 189.03125 329.5625 L 189.25 329.25 L 189.34375 328.84375 L 189.375 328.5625 L 189.21875 328.3125 L 187.53125 329.4375 L 187.09375 329.78125 L 184.59375 332.09375 L 183.90625 332.71875 L 181.9375 334.53125 L 180.9375 335.46875 L 180.46875 335.8125 L 178.96875 337 L 177.8125 337.90625 L 177.5 338.0625 L 177.25 338.1875 L 176.28125 338.53125 L 176 338.5625 L 175.75 338.75 L 174.875 338.875 L 174.4375 338.875 L 174.09375 338.8125 L 173.84375 338.8125 L 172.78125 338.78125 L 172.53125 338.75 L 171.53125 338.3125 L 171.03125 338.09375 L 169.75 337.3125 L 169.28125 337.125 L 168.75 336.96875 L 168.28125 336.90625 L 167.5625 336.90625 L 166.78125 336.96875 L 166.375 337.03125 L 166.09375 337.09375 L 165.34375 337.25 L 164.78125 337.46875 L 164.34375 337.6875 L 163.53125 338.15625 L 163.5 337.8125 L 163.3125 335.90625 L 163.3125 335.59375 L 163.0625 335.125 L 163.1875 334.71875 L 163.21875 332.4375 L 163.21875 332.1875 L 162.90625 330.09375 L 162.59375 328.65625 L 162.53125 328.03125 L 162.375 327.1875 L 162.125 325.75 L 161.84375 324.8125 L 161.625 324.125 L 161.5 323.8125 L 160.46875 323.9375 L 158.5625 324.0625 L 157.15625 324.15625 L 156 324.09375 L 155.375 324.28125 L 154.5625 324.5625 L 154.03125 324.53125 L 152.6875 324.4375 L 152.1875 324.34375 L 151.375 324.21875 L 150.84375 324.15625 L 150.21875 324.03125 L 149.90625 324 L 149.40625 324.28125 L 148.53125 324.5625 L 148.125 324.75 L 147.5 325 L 146.625 325.375 L 146.375 325.4375 L 145.8125 325.5625 L 145.0625 326.125 L 144.78125 326.3125 L 144 326.71875 L 143.65625 326.8125 L 142.875 327.25 L 141.5625 327.78125 L 140.59375 328.0625 L 139.71875 328.25 L 139.03125 328.40625 L 137.1875 328.71875 L 136.59375 328.71875 L 136.28125 328.78125 L 135.46875 328.75 L 134.96875 328.84375 L 134.6875 328.9375 L 133.875 329.5 L 128.8125 332.4375 L 128.6875 332.5 L 125.8125 334.03125 L 122.3125 335.84375 L 121.65625 336.21875 L 114.5 340.03125 L 114.4375 342.59375 L 114.40625 342.96875 L 114.125 343.65625 L 113.90625 344.34375 L 113.65625 345 L 113.625 345.46875 L 113.65625 345.71875 L 115.0625 345.6875 L 119.34375 345.03125 L 120.5 344.71875 L 120.90625 344.625 L 121.125 346.46875 L 119.90625 347.375 L 119.59375 347.59375 L 119.21875 347.59375 L 116.4375 347.8125 L 115 347.96875 L 114.46875 348 L 112.84375 347.71875 L 112.15625 347.5 L 110.96875 347.21875 L 108.1875 346.8125 L 107.5 346.6875 L 107.15625 346.65625 L 106.0625 346.125 L 105.90625 345.90625 L 105.6875 345.59375 L 105.75 345.03125 L 105.0625 345.28125 L 103.6875 346.25 L 103.0625 346.71875 L 100.8125 348.625 L 99.40625 350.28125 L 98.75 351.125 L 100.15625 352.5 L 100.375 352.59375 L 100.625 352.53125 L 100.375 353.875 L 100.03125 353.84375 L 99.625 353.75 L 99.25 353.96875 L 98.9375 353.84375 L 98.21875 353.125 L 97.65625 352.59375 L 96.96875 351.9375 L 97.0625 350.71875 L 97.1875 350.03125 L 97.65625 350 L 99.15625 349.9375 L 98.4375 350.84375 L 98.71875 351.09375 L 99.125 350.34375 L 99.34375 350 L 100.71875 348.53125 L 103.28125 346.1875 L 103.0625 346.0625 L 102.6875 346.03125 L 101.65625 346 L 101.375 344.90625 L 102.90625 344.65625 L 102.28125 344.25 L 101.96875 344.1875 L 101.15625 343.75 L 100.625 343.25 L 100.03125 343.875 L 97.9375 345.375 L 97.40625 345.6875 L 97.03125 345.78125 L 96.3125 345.6875 L 96.09375 345.5625 L 95.75 345.375 L 95.40625 345 L 94.03125 343.78125 L 93.375 343 L 93.09375 342.59375 L 92.28125 341.40625 L 92 340.8125 L 91.71875 340.75 L 91.03125 340.5625 L 88.8125 339.1875 L 88.5 338.84375 L 88.3125 338.03125 L 88.1875 337.78125 L 87.84375 337.28125 L 87.53125 336.875 L 87.125 336.4375 L 86.8125 336.1875 L 87.375 335.4375 L 86.90625 335.0625 L 85.71875 334.84375 L 85.90625 334.0625 L 86.8125 334.28125 L 88 334.09375 L 87.875 333.375 L 88.28125 333.3125 L 88.59375 333.28125 L 88.4375 332.4375 L 88.15625 332.46875 L 87.71875 332.53125 L 87.59375 331.90625 L 87.4375 331.0625 L 86.65625 330.78125 L 86.25 330.75 L 86.25 331.0625 L 86.3125 331.28125 L 86.34375 331.6875 L 86.34375 331.90625 L 86.1875 333.28125 L 86.1875 333.65625 L 86.09375 333.9375 L 85.6875 333.96875 L 85.46875 334.03125 L 85.0625 333.78125 L 84.84375 333.90625 L 84.125 333.625 L 82.84375 333.21875 L 82.84375 332.78125 L 82.84375 331.875 L 82.65625 331.03125 L 82.625 330.625 L 82.75 330.375 L 82.25 330.34375 L 81.46875 330.59375 L 80.84375 330.90625 L 80.40625 330.9375 L 80.34375 331.15625 L 80.75 331.90625 L 81.09375 332.375 L 81.40625 332.65625 L 81.625 332.96875 L 81.5625 333.21875 L 81.65625 333.5 L 81.1875 333.8125 L 80.8125 334.15625 L 78.5625 333.125 L 78.09375 332.625 L 77.84375 332.46875 L 77.59375 332.40625 L 77.25 332.3125 L 77.03125 331.53125 L 77 330.65625 L 75.90625 325.25 L 79.96875 323.21875 L 80.46875 322.59375 L 81.09375 321.78125 L 81.375 320.9375 L 81.40625 320.65625 L 81.96875 320.09375 L 82.1875 320.03125 L 82.75 320.25 L 83.125 320.625 L 83.65625 320.84375 L 84.15625 320.96875 L 84.875 321.34375 L 85.34375 320.15625 L 86.0625 319.875 L 86.84375 318.875 L 89.375 316.65625 L 88.96875 313.75 L 89.9375 313.21875 L 91.71875 310.46875 L 93.9375 309.125 L 94.375 308.875 L 94.96875 308.15625 L 94.9375 307.3125 L 95.34375 306.375 L 94.5625 305.5625 L 94.34375 305.3125 L 94.09375 304.8125 L 93.90625 304.5625 L 93.4375 304.09375 L 92.75 302.875 L 92.09375 302.3125 L 91.84375 302.5625 L 91.34375 301.9375 L 90.625 301.875 L 89.71875 300.625 L 90.5 300.09375 L 90.25 299.78125 L 89.8125 299.5625 L 89.125 299.1875 L 88.8125 298.65625 L 88.5625 298.375 L 88.25 298.0625 L 87.34375 297.375 L 87.625 296.75 L 87.90625 296.25 L 88.3125 295.625 L 88.53125 295.03125 L 88.65625 294.75 L 88.75 294.375 L 89.0625 291.21875 L 88.9375 290.125 L 87.90625 289.0625 L 88.34375 287.34375 L 88.375 286.09375 L 88.34375 285.71875 L 88.25 285.0625 L 88 283.9375 L 88.25 283.3125 L 88.71875 282.375 L 89.75 281.40625 L 89.71875 280.28125 L 90.90625 278.75 L 91.21875 278 L 91.625 276.875 L 91.90625 276.21875 L 91.9375 275.90625 L 91.9375 275.53125 L 91.9375 273.84375 L 93.34375 273.375 L 94.90625 273 L 96.5625 272.5625 L 97 272.28125 L 97.75 271.53125 L 98.59375 270.46875 L 99.28125 269.5625 L 100.21875 268.3125 L 100.84375 267.5 L 101.53125 266.625 L 101.90625 266.125 L 102.59375 265.25 L 104.40625 262.90625 L 105.875 261.03125 L 107.65625 258.78125 L 108.9375 257.125 L 109.1875 256.8125 L 110.15625 255.875 L 110.6875 255.21875 L 110.90625 254.9375 L 111.1875 254.625 L 111.5 254.25 L 111.78125 253.90625 L 112.09375 253.53125 L 112.9375 252.625 L 113.34375 252.15625 L 113.84375 251.59375 L 114.125 251.21875 L 115.0625 250.25 L 116.84375 248.34375 L 118.9375 245.96875 L 119.09375 245.65625 L 119.53125 245.3125 L 119.03125 245.0625 L 118.6875 244.84375 L 117.25 244.0625 L 117 243.90625 L 116.5 243.625 L 116.03125 243.28125 L 115.34375 242.84375 L 114.46875 242.28125 L 114.03125 242.0625 L 113.53125 241.9375 L 113.28125 241.8125 L 112.71875 241.4375 L 112.5 241.28125 L 112.28125 241.125 L 111.59375 240.6875 L 111.25 240.4375 L 110.9375 240.15625 L 110.5 239.84375 L 110.0625 239.59375 L 109.59375 239.28125 L 108.59375 238.625 L 108.34375 238.46875 L 108 238.28125 L 107.4375 238.125 L 107 238.09375 L 106.6875 237.65625 L 106.59375 237.21875 L 106.4375 236.75 L 106.21875 236.46875 L 105.9375 236.34375 L 105.6875 236.1875 L 105.4375 236.03125 L 104.78125 236.09375 L 103.78125 236.40625 L 103.15625 236.59375 L 102.71875 236.71875 L 102.1875 236.84375 L 101.875 236.90625 L 101.1875 237.03125 L 99.75 237.375 L 99.125 237.5 L 98.5 237.53125 L 98.0625 237.65625 L 97.59375 237.75 L 96.875 237.9375 L 96.625 237.96875 L 95.875 237.96875 L 94.96875 238.03125 L 93.4375 238.25 L 93.1875 238.3125 L 92.71875 238.3125 L 92.375 238.3125 L 91.75 238.28125 L 91.90625 237.34375 L 92 236.875 L 92.0625 236.46875 L 92.09375 236.1875 L 92.1875 235.84375 L 92.3125 235.1875 L 92.46875 234.125 L 92.40625 233.5625 L 92.4375 233.3125 L 92.40625 232.875 L 92.53125 232.09375 L 92.5625 230.8125 L 92.5625 230.3125 L 92.59375 229.6875 L 92.625 229.40625 L 92.65625 228.9375 L 92.6875 228.25 L 92.71875 228 L 92.78125 227.71875 L 92.84375 227.25 L 92.875 226.9375 L 92.90625 226.53125 L 93 226.09375 L 93.125 225.59375 L 93.25 225 L 93.5 224.34375 L 93.875 223.46875 L 94.125 222.84375 L 94.8125 221.125 L 95.03125 220.46875 L 95.125 220.0625 L 95.34375 219.03125 L 95.40625 218.75 L 95.625 217.8125 L 96.09375 214.78125 L 96.03125 214.03125 L 96.5625 212.0625 L 97.09375 210.28125 L 97.375 209.15625 L 97.9375 207.125 L 98.53125 204.90625 L 98.84375 203.71875 L 99.1875 203.96875 L 99.75 204.46875 L 100.40625 205.40625 L 101.03125 206.09375 L 101.6875 206.5 L 102.03125 206.6875 L 102.40625 206.78125 L 103.1875 206.84375 L 104.53125 206.9375 L 104.84375 206.96875 L 105.375 207.125 L 105.75 207.15625 L 106.125 207.15625 L 106.3125 207.0625 L 106.46875 206.78125 L 106.90625 206.71875 L 107.25 206.28125 L 107.28125 205.9375 L 107.4375 205.5625 L 107.78125 205.125 L 107.875 204.78125 L 107.9375 204.25 L 107.875 203.6875 L 107.6875 202.71875 L 107.6875 202 L 107.65625 201.40625 L 107.5625 201.125 L 107.4375 200.875 L 107.1875 199.84375 L 107.0625 199.59375 L 107.53125 199.125 L 107.8125 198.875 L 108.03125 196.5 L 108.09375 196.15625 L 108.25 195.8125 L 108.75 195.09375 L 108.96875 194.6875 L 109.40625 193.90625 L 109.5625 193.21875 L 110 191.96875 L 110 191.46875 L 110.09375 191.1875 L 110.4375 191 L 110.71875 190.40625 L 110.875 189.46875 L 110.84375 189.0625 L 110.90625 188.75 L 111.125 188.46875 L 111.21875 187.28125 L 111.28125 186.875 L 111.21875 186.40625 L 111.28125 186.0625 L 111.21875 185.21875 L 111.28125 184.65625 L 111.15625 183.90625 L 111.03125 183.21875 L 110.71875 182.46875 L 110.4375 181.8125 L 110.15625 181.09375 L 110.0625 180.34375 L 109.78125 179.96875 L 109.4375 179.75 L 109.25 179.40625 L 108.0625 179.78125 L 106.53125 180.46875 L 106.0625 180.875 L 105.5625 180.9375 L 105.125 181.09375 L 104 181.59375 L 103.5625 181.90625 L 103.0625 181.875 L 102.65625 181.84375 L 101.84375 182.15625 L 101.40625 182.25 L 99.9375 182.59375 L 99.53125 182.1875 L 99.3125 181.53125 L 99.15625 180.78125 L 98.875 179.84375 L 98.6875 179.5625 L 98.4375 179.375 L 97.53125 179.5 L 98.21875 177 L 97.75 176.9375 L 97.8125 175.875 L 98.34375 175.59375 L 99.15625 176.1875 L 100.0625 176.15625 L 101.59375 175.75 L 102.9375 174.53125 L 103.6875 174.25 L 105.875 173.71875 L 107.40625 172.78125 L 108.96875 171.84375 L 110.3125 170.1875 L 111.15625 168.96875 L 111.53125 168.34375 L 111.9375 167.625 L 112.15625 167.34375 L 112.40625 167.09375 L 112.78125 166.84375 L 113.28125 166.625 L 114.5625 166.25 L 115.59375 166 L 117.1875 165.59375 L 118.3125 166.34375 L 118.5625 166.5625 L 118.96875 167 L 119.3125 167.15625 L 120.34375 167.375 L 121.53125 167.90625 L 121.78125 168.125 L 122.34375 168.65625 L 122.71875 168.78125 L 123.40625 168.9375 L 124.125 169 L 124.71875 169.03125 L 125.125 169.15625 L 125.53125 169.40625 L 126.125 169.65625 L 126.53125 169.8125 L 127.0625 169.96875 L 127.4375 170.03125 L 127.75 170.15625 L 128.09375 170.3125 L 128.8125 171.09375 L 129.09375 171.3125 L 129.5 171.5625 L 130.03125 171.8125 L 130.78125 172.15625 L 131.125 172.46875 L 131.71875 172.96875 L 132.03125 173.15625 L 132.625 173.34375 L 133.3125 173.53125 L 134.75 173.78125 L 135.09375 173.9375 L 135.4375 174.03125 L 135.84375 174.28125 L 136.59375 174.375 L 136.90625 174.5 L 137.1875 174.71875 L 137.53125 174.96875 L 137.8125 175.125 L 138.15625 175.34375 L 139.4375 176.09375 L 139.71875 176.21875 L 140.1875 176.375 L 140.78125 176.46875 L 141.25 176.65625 L 141.75 176.71875 L 142.21875 176.90625 L 142.65625 176.96875 L 143.53125 176.90625 L 145.3125 177.125 L 145.75 176.28125 L 146 175.59375 L 146.375 174.3125 L 146.84375 172.75 L 147.03125 172.15625 L 146.8125 171.25 L 146.40625 170.5625 L 144.90625 169 L 144.25 168.5 L 142.75 167.375 L 142.34375 167 L 141.59375 166.1875 L 140.5625 165.0625 L 140.25 164.5 L 139.46875 163.21875 L 138.34375 161.59375 L 137.90625 161.09375 L 137.625 160.6875 L 137.375 160 L 137.28125 159.25 L 137.28125 158.875 L 137.3125 158.5 L 137.375 158.25 L 137.71875 157.90625 L 137.96875 157.75 L 138.1875 157.65625 L 139.3125 157.15625 L 139.6875 156.9375 L 139.96875 156.65625 L 140.1875 156.34375 L 140.34375 156.0625 L 140.71875 155.46875 L 141.15625 154.53125 L 141.5625 153.65625 L 143.15625 150.53125 L 143.96875 148.8125 L 144.59375 147.5 L 144.84375 147.3125 L 145.65625 146.53125 L 146.28125 145 L 146.4375 144.71875 L 147.40625 142.59375 L 147.53125 142.03125 L 147.59375 141.53125 L 147.65625 140.5 L 147.75 140.125 L 147.78125 139.71875 L 147.75 139.34375 L 148.21875 139.375 L 148.875 139.4375 L 149.75 139.25 L 150.25 139.40625 L 150.5 139.40625 L 150.75 139.78125 L 151.46875 139.96875 L 151.84375 140.03125 L 152.1875 140.0625 L 152.8125 140.125 L 153.1875 140.15625 L 154.09375 140.09375 L 155.78125 139.75 L 158.3125 139.65625 L 158.8125 139.53125 L 159.03125 139.4375 L 159.34375 139.34375 L 159.6875 139.28125 L 160 139.34375 L 160.25 139.4375 L 161.53125 140.15625 L 162.09375 140.21875 L 162.34375 140.21875 L 162.625 140.125 L 163.25 139.96875 L 163.6875 140.03125 L 163.96875 140.09375 L 164.875 140.15625 L 165.1875 140.15625 L 165.875 140 L 166.1875 140 L 167.1875 139.96875 L 167.625 139.8125 L 168.03125 139.8125 L 169 139.8125 L 169.28125 139.75 L 169.9375 139.90625 L 170.625 140.1875 L 171.09375 140.28125 L 171.53125 140.59375 L 171.53125 140.0625 L 171.59375 139.21875 L 171.625 138.40625 L 171.71875 137.375 L 171.78125 136.5 L 171.8125 135.90625 L 171.8125 135.53125 L 171.84375 134.78125 L 171.90625 133.59375 L 171.8125 133.09375 L 171.5625 132.15625 L 171.28125 131.4375 L 171.125 131.125 L 170.71875 130.34375 L 170.5625 130 L 170.40625 129.46875 L 170.375 129.09375 L 170.34375 128.78125 L 170.3125 128.25 L 172 128.65625 L 174.25 129.1875 L 175.46875 129.0625 L 176.875 128.65625 L 178 128.6875 L 178.34375 128.65625 L 180.8125 128.09375 L 181.53125 128 L 181.90625 127.9375 L 182.3125 123.3125 L 182.4375 121.8125 L 182.25 121.34375 L 182.65625 119.65625 L 182.75 118.0625 L 182.78125 117.75 L 181.0625 117.625 L 181.15625 115.8125 L 181.3125 113.78125 L 181.5 110.40625 L 182.09375 110.59375 L 182.5 110.6875 L 182.90625 110.75 L 183.25 110.84375 L 183.59375 111 L 183.9375 111.09375 L 184.21875 111.125 L 184.46875 111.125 L 184.6875 111.0625 L 185.34375 111.15625 L 187.125 111.53125 L 187.34375 111.625 L 187.78125 111.65625 L 188 111.6875 L 188.28125 111.65625 L 188.78125 111.65625 L 189.71875 111.65625 L 190.75 111.65625 L 191.21875 111.6875 L 191.71875 111.78125 L 192.0625 111.78125 L 192.40625 111.75 L 193.21875 111.5625 L 194.71875 111.40625 L 195 111.9375 L 195.71875 112.6875 L 196.15625 113.3125 L 196.40625 113.40625 L 191.15625 116.9375 L 194.125 122.53125 L 194.5625 123.75 L 195.46875 125.46875 L 195.875 125.34375 L 195.96875 126.25 L 196.03125 126.46875 L 195.875 127.25 L 195.75 127.65625 L 195.3125 128.28125 L 195.34375 128.71875 L 194.84375 128.90625 L 194.84375 129.25 L 194.3125 129.3125 L 194.59375 130.03125 L 194.6875 130.5625 L 194.8125 131 L 194.15625 131.375 L 194.15625 131.78125 L 194.4375 132.5 L 195.09375 133.71875 L 196.03125 135.625 L 196.25 136.78125 L 196.28125 137.03125 L 196.4375 137.25 L 196.21875 137.6875 L 196.53125 137.75 L 196.375 138.0625 L 195.71875 138.59375 L 194.375 138.96875 L 194.15625 139.0625 L 193.6875 139.40625 L 192.65625 139.78125 L 192.34375 140.03125 L 192.4375 140.125 L 194.875 139.75 L 195.5625 139.5625 L 195.9375 139.5625 L 196.84375 139.46875 L 197.71875 139.34375 L 197.9375 139.375 L 198.40625 139.53125 L 198.96875 139.84375 L 199.21875 139.9375 L 200.21875 140.25 L 201.21875 140.65625 L 201.4375 140.71875 L 202.03125 140.8125 L 203.09375 140.90625 L 203.6875 140.96875 L 204.03125 141.03125 L 204.5625 141.25 L 204.875 141.40625 L 205.625 141.59375 L 206.53125 141.84375 L 206.8125 141.96875 L 207.40625 142.34375 L 208.25 142.84375 L 208.5 143.03125 L 208.71875 142.90625 L 210.84375 144.3125 L 211.03125 144.09375 L 211.46875 143.96875 L 211.71875 143.90625 L 211.75 143.6875 L 212.15625 143.78125 L 212.65625 143.71875 L 212.9375 143.8125 L 213.40625 143.6875 L 213.8125 143.71875 L 214.15625 143.59375 L 214.46875 143.59375 L 214.9375 143.375 L 216.34375 143.46875 L 218.71875 143.25 L 218.875 144.0625 L 219.09375 143.9375 L 219.375 144.03125 L 219.46875 144.28125 L 219.625 144.03125 L 219.78125 143.96875 L 220 143.875 L 220.5625 143.84375 L 220.78125 143.625 L 221 143.5 L 221.21875 143.59375 L 221.46875 143.75 L 221.75 143.84375 L 222.21875 143.9375 L 222.53125 143.71875 L 222.96875 143.59375 L 223.21875 143.15625 L 223.46875 143.03125 L 223.8125 143.0625 L 224.09375 142.8125 L 224.375 142.8125 L 224.5625 142.5625 L 224.96875 142.28125 L 225.28125 142.28125 L 225.5 142.53125 L 226.03125 142.53125 L 226.375 142.3125 L 226.125 142.125 L 225.84375 141.90625 L 226.21875 141.75 L 226.5 142 L 226.75 141.875 L 227 141.78125 L 227.15625 141.875 L 227.4375 141.875 L 227.3125 141.5625 L 227.5625 141.375 L 227.8125 141.59375 L 228.0625 141.65625 L 228.625 141.25 L 228.75 140.9375 L 229.0625 140.46875 L 229.3125 140.125 L 229.65625 140.28125 L 230 140.21875 L 230.34375 139.9375 L 231.09375 139.65625 L 232.40625 138.40625 L 232.75 138.0625 L 232.34375 137.21875 L 231.96875 136.65625 L 232.25 136.5 L 233.0625 135.15625 L 233.15625 134.75 L 233.4375 134.34375 L 233.71875 133.9375 L 234.0625 134.34375 L 234.40625 133.9375 L 234.5625 133.6875 L 235.75 133.1875 L 235.65625 132.90625 L 235.09375 132.5 L 235.34375 132.15625 L 235.71875 132 L 235.9375 131.96875 L 236.1875 132 L 236.46875 132.0625 L 236.6875 132.125 L 237.03125 132.09375 L 237.375 132 L 238.09375 131.65625 L 238.375 131.53125 L 238.625 131.40625 L 239.1875 130.8125 L 239.40625 130.4375 L 239.5 129.84375 L 239.625 129.53125 L 239.71875 129.21875 L 239.71875 128.78125 L 239.71875 128.53125 L 239.71875 128 L 239.71875 127.53125 L 239.78125 127.25 L 239.9375 126.90625 L 240.28125 126.40625 L 240.71875 125.84375 L 240.96875 125.71875 L 241 125.21875 L 241.09375 124.8125 L 241.1875 124.3125 L 241.375 124.03125 L 241.5 123.78125 L 241.90625 123.0625 L 241.96875 122.65625 L 242.0625 122.28125 L 242.78125 122.46875 L 243.15625 122.46875 L 243.625 122.125 L 243.375 121.9375 L 243.65625 121.59375 L 243.9375 121.46875 L 244.125 121.59375 L 244.625 122.21875 L 244.9375 122.59375 L 245.21875 122.875 L 246.03125 123.71875 L 246.6875 124.3125 L 247.125 124.6875 L 247.65625 125.0625 L 248.5 125.5625 L 248.84375 125.875 L 249.21875 126.34375 L 249.4375 126.625 L 249.96875 126.40625 L 250.6875 126.21875 L 251.90625 125.90625 L 252.15625 126.1875 L 252.46875 126.5625 L 252.78125 126.6875 L 253.15625 126.71875 L 253.3125 126.96875 L 253.34375 127.21875 L 253.3125 127.46875 L 253.125 127.84375 L 253.15625 128.09375 L 254.21875 129.46875 L 254.53125 129.75 L 256.125 130.9375 L 256.96875 131.625 L 256.96875 131.65625 L 258.46875 132.84375 L 259.65625 131.8125 L 259.90625 131.625 L 260.21875 131.40625 L 260.5625 131.1875 L 262.75 131.34375 L 263.125 131.1875 L 263.84375 130.625 L 263.8125 130.21875 L 263.5625 129.9375 L 263.53125 129.53125 L 263.4375 128.8125 L 263.25 127.6875 L 263.3125 127.25 L 263.4375 126.125 L 263.5625 125.21875 L 263.78125 124.96875 L 264.40625 124.78125 L 264.96875 124.625 L 266.71875 124.15625 L 266.96875 122.71875 L 267.3125 120.84375 L 267.65625 120.65625 L 267.84375 120.90625 L 268.0625 120.875 L 268.34375 120.8125 L 268.6875 120.46875 L 269.8125 120.40625 L 270.21875 120.25 L 270.5 120.09375 L 270.84375 119.96875 L 271.15625 119.96875 L 272.25 120.03125 L 272.75 120.0625 L 273.09375 120.15625 L 273.375 120.21875 L 273.46875 120.5625 L 273.5 121.09375 L 274 121.1875 L 275.90625 121.40625 L 277.5625 121.625 L 278 121.28125 L 278.25 121.15625 L 278.8125 120.90625 L 279.1875 120.21875 L 279.375 119.90625 L 279.6875 119.65625 L 280.0625 119.5 L 280.40625 119.3125 L 280.65625 119.0625 L 281.28125 118.625 L 281.59375 118.5 L 281.9375 118.46875 L 282.25 118.5 L 282.53125 118.4375 L 282.84375 118.46875 L 283.1875 118.3125 L 283.4375 117.96875 L 284.0625 117.3125 L 284.5 116.90625 L 284.96875 116.65625 L 285.28125 116.34375 L 285.375 115.71875 L 285.34375 115.4375 L 285.40625 115.125 L 285.3125 114.6875 L 285.15625 114.46875 L 285 114.21875 L 279 113.34375 L 274.34375 109.40625 L 272.6875 108.71875 L 273.15625 108.3125 L 275 106.1875 L 275.28125 106.03125 L 277.46875 103.5625 L 277.40625 103.15625 L 280.9375 104.78125 L 283.40625 101.28125 L 286.09375 97.78125 L 286.96875 98.78125 L 288.3125 97.375 z M 438.59375 306.03125 L 438.09375 308.375 L 441.03125 308.8125 L 441.09375 309.15625 L 440.8125 309.78125 L 440.65625 310.09375 L 440.53125 310.46875 L 439.75 310.3125 L 438.875 310.1875 L 437.625 309.96875 L 438.59375 306.03125 z "
       transform="translate(0,552.36217)"
       id="path6376" />
  </g>
</svg>
